%YAML 1.1
%TAG !u! tag:unity3d.com,2011:
--- !u!114 &11400000
MonoBehaviour:
  m_ObjectHideFlags: 0
  m_CorrespondingSourceObject: {fileID: 0}
  m_PrefabInstance: {fileID: 0}
  m_PrefabAsset: {fileID: 0}
  m_GameObject: {fileID: 0}
  m_Enabled: 1
  m_EditorHideFlags: 0
  m_Script: {fileID: 11500000, guid: df1e28637eae524448870eda5ae83b1d, type: 3}
  m_Name: Ypovryxia_Model3D_C
  m_EditorClassIdentifier: 
  description: 
  sceneType: 6
  sceneReference:
    m_AssetGUID: 93317432d283583449c6a74dd7810f32
    m_SubObjectName: 
    m_SubObjectType: 
    m_EditorAssetChanged: 0
