%YAML 1.1
%TAG !u! tag:unity3d.com,2011:
--- !u!114 &11400000
MonoBehaviour:
  m_ObjectHideFlags: 0
  m_CorrespondingSourceObject: {fileID: 0}
  m_PrefabInstance: {fileID: 0}
  m_PrefabAsset: {fileID: 0}
  m_GameObject: {fileID: 0}
  m_Enabled: 1
  m_EditorHideFlags: 0
  m_Script: {fileID: 11500000, guid: bbb281ee3bf0b054c82ac2347e9e782c, type: 3}
  m_Name: ContentScenes
  m_EditorClassIdentifier: 
  m_GroupName: ContentScenes
  m_Data:
    m_SerializedData: []
  m_GUID: 4807dd3ad49e65a42abda52d7ea010e6
  m_SerializeEntries:
  - m_GUID: 6936f99831a3f2c409d69db6da1fa6e2
    m_Address: Poros_Video_A
    m_ReadOnly: 0
    m_SerializedLabels: []
  - m_GUID: bcf841a6646cd0f48ac00f14b5453be5
    m_Address: Ypovryxia_Video360_B
    m_ReadOnly: 0
    m_SerializedLabels: []
  - m_GUID: 17b4fcf28d0302047b268112a8494291
    m_Address: Ypovryxia_Video360_A
    m_ReadOnly: 0
    m_SerializedLabels: []
  - m_GUID: deae59a274579ed4fac830a37ea6d31b
    m_Address: OXA_Video360_C
    m_ReadOnly: 0
    m_SerializedLabels: []
  - m_GUID: ff617c481e2218a46ac3a1f076dc7fed
    m_Address: Poros_Video360_A
    m_ReadOnly: 0
    m_SerializedLabels: []
  - m_GUID: b370c858a38000c478e9b6108c0f1540
    m_Address: Poros_Video360_B
    m_ReadOnly: 0
    m_SerializedLabels: []
  - m_GUID: c41348bb883f4574797d316be336291a
    m_Address: OXA_Video_A
    m_ReadOnly: 0
    m_SerializedLabels: []
  - m_GUID: ba783241ee73a834dacb60791a68085b
    m_Address: OXA_Video_B
    m_ReadOnly: 0
    m_SerializedLabels: []
  - m_GUID: 57387c3e786fbb541a6fbbaf9e0dc0fa
    m_Address: OXA_Video_C
    m_ReadOnly: 0
    m_SerializedLabels: []
  - m_GUID: 4227faeebb2507f43abf5ae6500b8b88
    m_Address: OXA_Video360_B
    m_ReadOnly: 0
    m_SerializedLabels: []
  - m_GUID: fbbd286fa314d5c40b1082b9cd0ced20
    m_Address: OXA_Video360_A
    m_ReadOnly: 0
    m_SerializedLabels: []
  - m_GUID: e12729d89b4269b4196dfe4a7aebdac7
    m_Address: OXA_Model3D_A
    m_ReadOnly: 0
    m_SerializedLabels: []
  - m_GUID: 305593659318635409cad43735e4599e
    m_Address: OXA_Model3D_B
    m_ReadOnly: 0
    m_SerializedLabels: []
  - m_GUID: 5fe93bf011f9e9b4db0799391286c94c
    m_Address: Aforesmenos_Video_A
    m_ReadOnly: 0
    m_SerializedLabels: []
  - m_GUID: 9464807d49121694999047a6a6e94843
    m_Address: Aforesmenos_Video360_A
    m_ReadOnly: 0
    m_SerializedLabels: []
  - m_GUID: d0869c08317c2784eaca48fb191b3d69
    m_Address: Sxisma_Video_B
    m_ReadOnly: 0
    m_SerializedLabels: []
  - m_GUID: 945fb221156e94c40bf9c4644dcc731e
    m_Address: Sxisma_Video_A
    m_ReadOnly: 0
    m_SerializedLabels: []
  - m_GUID: 400d8bd36ba93594e95cae67ebaeda3f
    m_Address: Sxisma_Video360_A
    m_ReadOnly: 0
    m_SerializedLabels: []
  - m_GUID: 5a70677acb1ca2e4f97776cc10d3532f
    m_Address: Sxisma_Video360_B
    m_ReadOnly: 0
    m_SerializedLabels: []
  - m_GUID: 19aaa00fa0842ee448c110a9bb68003b
    m_Address: Kolokytha_Video360_A
    m_ReadOnly: 0
    m_SerializedLabels: []
  - m_GUID: 3481a9f7a5d51904f90a439630d735a3
    m_Address: Kolokytha_Video360_C
    m_ReadOnly: 0
    m_SerializedLabels: []
  - m_GUID: c8e127e9a5e6f4d42a9ab8ffde42820b
    m_Address: Kolokytha_Video360_B
    m_ReadOnly: 0
    m_SerializedLabels: []
  - m_GUID: 4407e76eade663f4da0e36abf180a95e
    m_Address: Kolokytha_Video_A
    m_ReadOnly: 0
    m_SerializedLabels: []
  - m_GUID: bdbe16371a739024bae33af8c6185d04
    m_Address: Ypovryxia_Model3D_A
    m_ReadOnly: 0
    m_SerializedLabels: []
  - m_GUID: a44ce7ddffe31b4429a17b59aa987612
    m_Address: Ypovryxia_Model3D_B
    m_ReadOnly: 0
    m_SerializedLabels: []
  - m_GUID: 93317432d283583449c6a74dd7810f32
    m_Address: Ypovryxia_Model3D_C
    m_ReadOnly: 0
    m_SerializedLabels: []
  - m_GUID: 25aac4bc137324a438e7b0a27f2bb419
    m_Address: Ypovryxia_Video_A
    m_ReadOnly: 0
    m_SerializedLabels: []
  m_ReadOnly: 0
  m_Settings: {fileID: 11400000, guid: 3e7d730c65b6401458b2fd238db6edd6, type: 2}
  m_SchemaSet:
    m_Schemas:
    - {fileID: 11400000, guid: 6cd05f92df7545644b135000a05a341f, type: 2}
    - {fileID: 11400000, guid: 49442ef8741cc0f4b801588fbe41545e, type: 2}
