%YAML 1.1
%TAG !u! tag:unity3d.com,2011:
--- !u!114 &11400000
MonoBehaviour:
  m_ObjectHideFlags: 0
  m_CorrespondingSourceObject: {fileID: 0}
  m_PrefabInstance: {fileID: 0}
  m_PrefabAsset: {fileID: 0}
  m_GameObject: {fileID: 0}
  m_Enabled: 1
  m_EditorHideFlags: 0
  m_Script: {fileID: 11500000, guid: bbb281ee3bf0b054c82ac2347e9e782c, type: 3}
  m_Name: LocationScenes
  m_EditorClassIdentifier: 
  m_GroupName: LocationScenes
  m_Data:
    m_SerializedData: []
  m_GUID: b15f7f1607ea43d4bbb30eb6ce223b03
  m_SerializeEntries:
  - m_GUID: 6f559b396cae66040b04dcf622bac1b3
    m_Address: Assets/Scenes/Locations/Aforesmenos.unity
    m_ReadOnly: 0
    m_SerializedLabels: []
  - m_GUID: 468bef5c6f7e1d84b93bebe37de74b96
    m_Address: Assets/Scenes/Locations/Kolokytha.unity
    m_ReadOnly: 0
    m_SerializedLabels: []
  - m_GUID: b0803bc243d05c0418d73453cb29a0dc
    m_Address: Assets/Scenes/Locations/Oxa.unity
    m_ReadOnly: 0
    m_SerializedLabels: []
  - m_GUID: eac88e61748908742915e7e4aa59f4dc
    m_Address: Assets/Scenes/Locations/Poros.unity
    m_ReadOnly: 0
    m_SerializedLabels: []
  - m_GUID: 91ae09be3c78e5040aeeaabc1097632a
    m_Address: Assets/Scenes/Locations/Sxisma.unity
    m_ReadOnly: 0
    m_SerializedLabels: []
  - m_GUID: e625176994eabe747bf14dc1b0460f38
    m_Address: Assets/Scenes/Locations/Ypovryxia.unity
    m_ReadOnly: 0
    m_SerializedLabels: []
  m_ReadOnly: 0
  m_Settings: {fileID: 11400000, guid: 3e7d730c65b6401458b2fd238db6edd6, type: 2}
  m_SchemaSet:
    m_Schemas:
    - {fileID: 11400000, guid: 32ebc437a204cd840b69a01efbbe816d, type: 2}
    - {fileID: 11400000, guid: 725f077ed867b5d4aa5c768e0b3d181b, type: 2}
