%YAML 1.1
%TAG !u! tag:unity3d.com,2011:
--- !u!114 &11400000
MonoBehaviour:
  m_ObjectHideFlags: 0
  m_CorrespondingSourceObject: {fileID: 0}
  m_PrefabInstance: {fileID: 0}
  m_PrefabAsset: {fileID: 0}
  m_GameObject: {fileID: 0}
  m_Enabled: 1
  m_EditorHideFlags: 0
  m_Script: {fileID: 11500000, guid: 4764f8ba5a58b9b499734e3a4aab0d24, type: 3}
  m_Name: Initialization
  m_EditorClassIdentifier: 
  description: This scene from where the game starts and is responsible for loading
    ApplicationManagers scene and raises the event to load tha main menu
  sceneType: 0
  sceneReference:
    m_AssetGUID: 333be9f0889309a459e3cd4b127ef920
    m_SubObjectName: 
    m_SubObjectType: 
    m_EditorAssetChanged: 0
